\relax 
\ifx\hyper@anchor\@undefined
\global \let \oldcontentsline\contentsline
\gdef \contentsline#1#2#3#4{\oldcontentsline{#1}{#2}{#3}}
\global \let \oldnewlabel\newlabel
\gdef \newlabel#1#2{\newlabelxx{#1}#2}
\gdef \newlabelxx#1#2#3#4#5#6{\oldnewlabel{#1}{{#2}{#3}}}
\AtEndDocument{\let \contentsline\oldcontentsline
\let \newlabel\oldnewlabel}
\else
\global \let \hyper@last\relax 
\fi

\@writefile{toc}{\contentsline {section}{\numberline {1}Introduction}{3}{section.1}}
\@writefile{toc}{\contentsline {section}{\numberline {2}Package Overview}{3}{section.2}}
\@writefile{toc}{\contentsline {section}{\numberline {3}Core Modules}{4}{section.3}}
\@writefile{toc}{\contentsline {subsection}{\numberline {3.1}\_\_init\_\_.py}{4}{subsection.3.1}}
\@writefile{toc}{\contentsline {subsection}{\numberline {3.2}distance.py}{5}{subsection.3.2}}
\@writefile{toc}{\contentsline {subsection}{\numberline {3.3}format.py}{7}{subsection.3.3}}
\@writefile{toc}{\contentsline {subsection}{\numberline {3.4}geohash.py}{7}{subsection.3.4}}
\@writefile{toc}{\contentsline {subsection}{\numberline {3.5}location.py}{8}{subsection.3.5}}
\@writefile{toc}{\contentsline {subsection}{\numberline {3.6}point.py}{8}{subsection.3.6}}
\@writefile{toc}{\contentsline {subsection}{\numberline {3.7}units.py}{9}{subsection.3.7}}
\@writefile{toc}{\contentsline {subsection}{\numberline {3.8}utili.py}{11}{subsection.3.8}}
\@writefile{toc}{\contentsline {section}{\numberline {4}Sub-packages}{12}{section.4}}
\@writefile{toc}{\contentsline {subsection}{\numberline {4.1}Geocoders}{12}{subsection.4.1}}
\@writefile{toc}{\contentsline {subsection}{\numberline {4.2}Parsers}{12}{subsection.4.2}}
\@writefile{toc}{\contentsline {section}{\numberline {5}Domain-specific Applications}{13}{section.5}}
\@writefile{toc}{\contentsline {section}{\numberline {6}Conclusion}{14}{section.6}}
\@writefile{toc}{\contentsline {section}{\numberline {A}Credit}{15}{appendix.A}}
\@writefile{toc}{\contentsline {subsection}{\numberline {A.1}Who Did What?}{15}{subsection.A.1}}
\@writefile{toc}{\contentsline {subsection}{\numberline {A.2}Sources}{15}{subsection.A.2}}
